^C:\USERS\АНДРЕЙ\SOURCE\REPOS\FIRSTCODE\FIRSTCODE\FIRSTCODE.CPP
C:\USERS\Андрей\SOURCE\REPOS\FIRSTCODE\FIRSTCODE\X64\DEBUG\VC143.PDB
C:\USERS\Андрей\SOURCE\REPOS\FIRSTCODE\FIRSTCODE\X64\DEBUG\VC143.IDB
C:\USERS\Андрей\SOURCE\REPOS\FIRSTCODE\FIRSTCODE\X64\DEBUG\FIRSTCODE.OBJ
