^C:\USERS\АНДРЕЙ\SOURCE\REPOS\FIRSTCODE\FIRSTCODE\DEBUG\FIRSTCODE.OBJ
C:\PROGRAM FILES (X86)\WINDOWS KITS\10\LIB\10.0.22621.0\UM\X86\KERNEL32.LIB
C:\PROGRAM FILES (X86)\WINDOWS KITS\10\LIB\10.0.22621.0\UM\X86\USER32.LIB
C:\PROGRAM FILES (X86)\WINDOWS KITS\10\LIB\10.0.22621.0\UM\X86\GDI32.LIB
C:\PROGRAM FILES (X86)\WINDOWS KITS\10\LIB\10.0.22621.0\UM\X86\WINSPOOL.LIB
C:\PROGRAM FILES (X86)\WINDOWS KITS\10\LIB\10.0.22621.0\UM\X86\COMDLG32.LIB
C:\PROGRAM FILES (X86)\WINDOWS KITS\10\LIB\10.0.22621.0\UM\X86\ADVAPI32.LIB
C:\PROGRAM FILES (X86)\WINDOWS KITS\10\LIB\10.0.22621.0\UM\X86\SHELL32.LIB
C:\PROGRAM FILES (X86)\WINDOWS KITS\10\LIB\10.0.22621.0\UM\X86\OLE32.LIB
C:\PROGRAM FILES (X86)\WINDOWS KITS\10\LIB\10.0.22621.0\UM\X86\OLEAUT32.LIB
C:\PROGRAM FILES (X86)\WINDOWS KITS\10\LIB\10.0.22621.0\UM\X86\UUID.LIB
C:\PROGRAM FILES (X86)\WINDOWS KITS\10\LIB\10.0.22621.0\UM\X86\ODBC32.LIB
C:\PROGRAM FILES (X86)\WINDOWS KITS\10\LIB\10.0.22621.0\UM\X86\ODBCCP32.LIB
C:\USERS\Андрей\SOURCE\REPOS\FIRSTCODE\FIRSTCODE\DEBUG\FIRSTCODE.OBJ
C:\WINDOWS\GLOBALIZATION\SORTING\SORTDEFAULT.NLS
C:\PROGRAM FILES\MICROSOFT VISUAL STUDIO\2022\ENTERPRISE\VC\TOOLS\MSVC\14.37.32822\LIB\X86\MSVCPRTD.LIB
C:\PROGRAM FILES\MICROSOFT VISUAL STUDIO\2022\ENTERPRISE\VC\TOOLS\MSVC\14.37.32822\LIB\X86\MSVCRTD.LIB
C:\PROGRAM FILES\MICROSOFT VISUAL STUDIO\2022\ENTERPRISE\VC\TOOLS\MSVC\14.37.32822\LIB\X86\OLDNAMES.LIB
C:\PROGRAM FILES\MICROSOFT VISUAL STUDIO\2022\ENTERPRISE\VC\TOOLS\MSVC\14.37.32822\LIB\X86\VCRUNTIMED.LIB
C:\PROGRAM FILES (X86)\WINDOWS KITS\10\LIB\10.0.22621.0\UCRT\X86\UCRTD.LIB
C:\PROGRAM FILES\MICROSOFT VISUAL STUDIO\2022\ENTERPRISE\VC\TOOLS\MSVC\14.37.32822\BIN\HOSTX86\X86\CVTRES.EXE
C:\PROGRAM FILES\MICROSOFT VISUAL STUDIO\2022\ENTERPRISE\VC\TOOLS\MSVC\14.37.32822\BIN\HOSTX86\X86\MSPDBSRV.EXE
C:\WINDOWS\SYSTEM32\TZRES.DLL
